<?xml version='1.0' encoding='utf-8'?>
<!-- Generator: Adobe Illustrator 21.0.2, SVG Export Plug-In . SVG Version: 6.00 Build 0)  -->
<svg x="0px" y="0px" xmlns="http://www.w3.org/2000/svg" version="1.1" height="130px" style="enable-background:new 0 0 130 130;" id="Layer_1" xml:space="preserve" width="130px" xmlns:xlink="http://www.w3.org/1999/xlink" viewBox="0 0 130 130">
 <style type="text/css">
	.st0{fill:#ffffff;}
</style>
 <g id="Layer_1_3_">
  <g>
   <path class="st0" d="M65,2.6C30.6,2.6,2.6,30.5,2.6,65c0,34.4,27.9,62.4,62.4,62.4s62.4-27.9,62.4-62.4S99.4,2.6,65,2.6z"/>
  </g>
 </g>
 <g>
  <path d="M37.4,60.5h13.2l10.5,0.7l-0.4-10.2V37h10.6v14.1l-0.6,10.2l8.7-0.7h15.1v10.6H79.4l-8.7-0.4l0.6,10v14.9H60.6V80.7l0.4-10&#xa;&#x9;&#x9;l-10.5,0.4H37.4V60.5z"/>
 </g>
</svg>
