<?xml version='1.0' encoding='utf-8'?>
<!-- Generator: Adobe Illustrator 21.0.2, SVG Export Plug-In . SVG Version: 6.00 Build 0)  -->
<svg style="enable-background:new 0 0 32 32;" xmlns:xlink="http://www.w3.org/1999/xlink" viewBox="0 0 32 32" xml:space="preserve" width="32px" id="Layer_1" xmlns="http://www.w3.org/2000/svg" x="0px" version="1.1" y="0px" height="32px">
 <g>
  <g id="XMLID_1_">
   <g>
    <polygon style="fill:#f9b233;; fill-opacity:1" points="16,4.3 26.3,16.9 20.2,16.9 20.2,29.2 11.3,29.2 11.3,16.9 5.7,16.9 &#x9;&#x9;&#x9;"/>
    <path style="fill:#f9b233;; fill-opacity:1" d="M20.2,16.9h6L16,4.3L5.7,16.9h5.6v12.3h8.9V16.9z M32,19.7h-9.1V32H8.6V19.7H0L16,0L32,19.7z"/>
   </g>
  </g>
 </g>
</svg>
