<svg width="101.439mm" data-name="Слой 1" viewBox="0 0 287.543 130.653" xmlns="http://www.w3.org/2000/svg" id="Слой_1" height="46.092mm">
 <title>Logotypes FS (all) 2</title>
 <path style="fill:#42c8c8;opacity:0.52; fill-opacity:1" d="M73.157,44.586c-3.1,0-5.193-2.817-8.527-2.817S59.2,44.586,56.1,44.586c-6.332,0-11.475-7.558-11.475-13.516,0-5.711,2.314-11.555,4.166-17.95C50.695,6.551,54.627,0,56.671,0c4.208,0,5.575,14.651,7.958,14.651S68.38,0,72.588,0c2.044,0,5.976,6.551,7.878,13.12,1.851,6.394,4.166,12.238,4.166,17.95C84.632,37.027,79.489,44.586,73.157,44.586Z"/>
 <path style="fill:#42c8c8;opacity:0.52; fill-opacity:1" d="M73.157,86.068c-3.1,0-5.193,2.817-8.527,2.817S59.2,86.068,56.1,86.068c-6.332,0-11.475,7.558-11.475,13.516,0,5.711,2.314,11.555,4.166,17.95,1.9,6.569,5.834,13.12,7.878,13.12,4.208,0,5.575-14.651,7.958-14.651s3.751,14.651,7.958,14.651c2.044,0,5.976-6.551,7.878-13.12,1.851-6.394,4.166-12.238,4.166-17.95C84.632,93.626,79.489,86.068,73.157,86.068Z"/>
 <path style="fill:#42c8c8;opacity:0.52; fill-opacity:1" d="M42.281,63.624c.958,2.947-1.074,5.81-.044,8.981s4.357,4.292,5.314,7.24c1.957,6.022-3.642,13.249-9.308,15.09-5.432,1.765-11.7,1.37-18.359,1.585-6.836.221-14.281-1.495-14.912-3.438-1.3-4,12.211-9.83,11.474-12.1S1.354,81.945.054,77.943C-.578,76,4.437,70.235,10.1,66.4c5.509-3.737,10.352-7.744,15.784-9.509C31.547,55.047,40.325,57.6,42.281,63.624Z"/>
 <path style="fill:#42c8c8;opacity:0.52; fill-opacity:1" d="M86.977,63.623c-.958,2.947,1.074,5.81.044,8.981s-4.357,4.292-5.314,7.24c-1.957,6.022,3.642,13.249,9.308,15.09,5.432,1.765,11.7,1.37,18.359,1.585,6.836.221,14.281-1.495,14.912-3.438,1.3-4-12.211-9.83-11.474-12.1s15.093.96,16.393-3.042c.632-1.944-4.383-7.708-10.043-11.547-5.509-3.737-10.352-7.744-15.784-9.509C97.712,55.045,88.934,57.6,86.977,63.623Z"/>
 <path style="fill:#42c8c8;opacity:0.52; fill-opacity:1" d="M42.281,67.054c.958-2.947-1.074-5.81-.044-8.981s4.357-4.292,5.314-7.24c1.957-6.022-3.642-13.249-9.308-15.09-5.432-1.765-11.7-1.37-18.359-1.585C13.049,33.937,5.6,35.653,4.972,37.6c-1.3,4,12.211,9.83,11.474,12.1S1.354,48.733.054,52.735C-.578,54.679,4.437,60.443,10.1,64.282c5.509,3.737,10.352,7.744,15.784,9.509C31.547,75.631,40.325,73.075,42.281,67.054Z"/>
 <path style="fill:#42c8c8;opacity:0.52; fill-opacity:1" d="M86.977,67.055c-.958-2.947,1.074-5.81.044-8.981s-4.357-4.292-5.314-7.24c-1.957-6.022,3.642-13.249,9.308-15.09,5.432-1.765,11.7-1.37,18.359-1.585,6.836-.221,14.281,1.495,14.912,3.438,1.3,4-12.211,9.83-11.474,12.1s15.093-.96,16.393,3.042c.632,1.944-4.383,7.708-10.043,11.547-5.509,3.737-10.352,7.744-15.784,9.509C97.712,75.633,88.934,73.077,86.977,67.055Z"/>
 <path style="fill:#42c8c8;opacity:0.52; fill-opacity:1" d="M45.638,77.106c2.507,1.822,2.546,5.332,5.243,7.291s6.048.912,8.555,2.733c5.123,3.722,4.841,12.86,1.339,17.68-3.357,4.621-8.664,7.988-13.921,12.073-5.4,4.2-12.432,7.185-14.085,5.983-3.4-2.473,4.1-15.13,2.173-16.53s-11.646,9.648-15.05,7.175c-1.654-1.2-.985-8.812,1.338-15.245C23.49,92,25.053,85.916,28.41,81.3,31.911,76.476,40.515,73.384,45.638,77.106Z"/>
 <path style="fill:#42c8c8;opacity:0.52; fill-opacity:1" d="M83.732,77.058c-2.507,1.822-2.546,5.332-5.243,7.291s-6.048.912-8.555,2.733c-5.123,3.722-4.841,12.86-1.339,17.68,3.357,4.621,8.664,7.988,13.921,12.073,5.4,4.2,12.432,7.185,14.085,5.983,3.4-2.473-4.1-15.13-2.173-16.53s11.646,9.648,15.05,7.175c1.654-1.2.985-8.812-1.338-15.245-2.261-6.261-3.823-12.35-7.18-16.97C97.459,76.428,88.855,73.336,83.732,77.058Z"/>
 <path style="fill:#42c8c8;opacity:0.52; fill-opacity:1" d="M45.574,53.559c2.507-1.822,2.546-5.332,5.243-7.291s6.048-.912,8.555-2.733c5.123-3.722,4.841-12.86,1.339-17.68-3.357-4.621-8.664-7.988-13.921-12.073C41.39,9.585,34.358,6.6,32.7,7.8c-3.4,2.473,4.1,15.13,2.173,16.53s-11.646-9.648-15.05-7.175c-1.654,1.2-.985,8.812,1.338,15.245,2.261,6.261,3.823,12.35,7.18,16.97C31.847,54.189,40.451,57.28,45.574,53.559Z"/>
 <path style="fill:#42c8c8;opacity:0.52; fill-opacity:1" d="M83.647,53.536C81.14,51.715,81.1,48.2,78.4,46.245s-6.048-.912-8.555-2.733c-5.123-3.722-4.841-12.86-1.339-17.68,3.357-4.621,8.664-7.988,13.921-12.073,5.4-4.2,12.432-7.185,14.085-5.983,3.4,2.473-4.1,15.13-2.173,16.53s11.646-9.648,15.05-7.175c1.654,1.2.985,8.812-1.338,15.245-2.261,6.261-3.823,12.35-7.18,16.97C97.373,54.166,88.769,57.258,83.647,53.536Z"/>
 <path style="fill:#1d1d1b" d="M214.068,99.782a.891.891,0,0,1-1.022-1.021v-9.24c0-5.989-2.6-9.007-7.754-9.007a9.187,9.187,0,0,0-8.078,4.875h-.093c-.975-3.25-3.3-4.875-6.872-4.875a8.772,8.772,0,0,0-7.66,4.921H182.5l.046-1.021v-.7c0-1.765-1.022-2.647-3.11-2.647h-5.479v5.014h1.858a.891.891,0,0,1,1.021,1.022V99.774h-2.879v4.976h11.593V99.774h-2.818V94.351a14.17,14.17,0,0,1,.325-2.972c.79-3.156,2.925-5.478,5.757-5.478,2.554,0,3.2,1.718,3.2,4.736V104.75h8.7V99.774H197.91V94.351a11.765,11.765,0,0,1,.325-3.018c.743-3.11,2.925-5.432,5.71-5.432,2.461,0,3.25,1.718,3.25,4.736v10.957c0,2.228.929,3.157,3.111,3.157h5.617V99.782Z"/>
 <path style="fill:#1d1d1b" d="M174.313,51.45a14.1,14.1,0,0,1,3.668-1.3,24.092,24.092,0,0,1,6.593-.7h.742v-.325c0-3.2-1.346-4.5-4.364-4.5-1.486,0-3.157.418-3.157,1.578v1.254H172.27V44.95c0-2.043,1.439-3.482,3.483-4.086a17.078,17.078,0,0,1,5.06-.789c7.568,0,10.4,3.482,10.4,9.425v8.822a.891.891,0,0,0,1.022,1.021h1.857V64.31h-5.339c-2,0-2.971-.882-2.971-2.6V60.689h-.093a8.146,8.146,0,0,1-7.335,4.179,8.531,8.531,0,0,1-5.571-1.9,6.408,6.408,0,0,1-2.275-5.154A7.143,7.143,0,0,1,174.313,51.45Zm5.617,8.914a4.729,4.729,0,0,0,3.853-1.95,6.582,6.582,0,0,0,1.579-4.271v-.65H184.3c-5.293,0-7.939,1.254-7.939,3.714C176.356,58.925,177.7,60.364,179.931,60.364Z"/>
 <path style="fill:#1d1d1b" d="M242.1,46.668a.891.891,0,0,0-1.021-1.022h-1.858V40.632h5.618c2.182,0,3.111.975,3.111,3.157V58.321a.89.89,0,0,0,1.021,1.021h1.858V64.31h-5.618c-2.182,0-3.111-.929-3.111-3.157Zm.279-9.889V31.346h5.108v5.432Z"/>
 <path style="fill:#1d1d1b" d="M254.591,37.382a.891.891,0,0,0-1.021-1.022h-1.858V31.346h5.618c2.182,0,3.11.975,3.11,3.157V58.321a.891.891,0,0,0,1.022,1.021h1.857V64.31H257.7c-2.182,0-3.111-.929-3.111-3.157Z"/>
 <path style="fill:#1d1d1b" d="M149.277,100.2l3.482-4.272a13.67,13.67,0,0,0,1.439,1.392,10.959,10.959,0,0,0,6.546,2.508c2.647,0,4.689-1.439,4.689-3.9,0-2.043-2.46-3.622-5.478-4.921-1.532-.65-3.017-1.393-4.55-2.182-3.018-1.625-5.478-4.457-5.478-8.311a8.33,8.33,0,0,1,3.11-6.639,11.837,11.837,0,0,1,7.893-2.647,15.055,15.055,0,0,1,4.272.6,9.427,9.427,0,0,1,3.853,2.182,4.772,4.772,0,0,1,1.718,3.714v3.064h-5.525V79.308c0-1.486-2-2.554-4.364-2.554-2.786,0-4.828,1.439-4.828,3.529,0,2.879,3.946,3.761,7.753,5.71,1.347.65,2.6,1.346,3.761,2.043a8.911,8.911,0,0,1,4.039,7.568,9.137,9.137,0,0,1-2.971,6.918,11.232,11.232,0,0,1-7.985,2.786,15.423,15.423,0,0,1-10.911-4.55Z"/>
 <path style="fill:#1d1d1b" d="M220.476,87.107a.891.891,0,0,0-1.022-1.022H217.6V81.072h5.618c2.182,0,3.11.975,3.11,3.157V98.761a.891.891,0,0,0,1.022,1.021H229.2v4.968h-5.618c-2.182,0-3.11-.929-3.11-3.157Zm.279-9.889V71.786h5.107v5.432Z"/>
 <path style="fill:#1d1d1b" d="M232.966,77.822a.891.891,0,0,0-1.022-1.022h-1.857V71.786H235.7c2.182,0,3.111.975,3.111,3.157V98.761a.89.89,0,0,0,1.021,1.021h1.858v4.968h-5.618c-2.182,0-3.11-.929-3.11-3.157Z"/>
 <path style="fill:#1d1d1b" d="M247.359,84a11.647,11.647,0,0,1,8.728-3.482,9.653,9.653,0,0,1,7.708,3.2,11.664,11.664,0,0,1,2.786,8.031,12.231,12.231,0,0,1-.186,2.275H250.051c.372,3.946,3.39,6.268,7.15,6.268a12.232,12.232,0,0,0,6.779-2.6l2.321,4.225a15.942,15.942,0,0,1-9.518,3.39,12.493,12.493,0,0,1-9.24-3.575A13.163,13.163,0,0,1,247.359,84Zm13.325,5.99c-.046-3.11-2-5.014-4.735-5.014a5.709,5.709,0,0,0-5.711,5.014Z"/>
 <path style="fill:#1d1d1b" d="M235.693,59.342a.891.891,0,0,1-1.022-1.021v-9.24c0-5.989-2.6-9.007-7.754-9.007a9.187,9.187,0,0,0-8.078,4.875h-.093c-.975-3.25-3.3-4.875-6.872-4.875A8.772,8.772,0,0,0,204.215,45h-.093l.046-1.021v-.7c0-1.765-1.022-2.647-3.11-2.647h-5.479v5.014h1.858a.891.891,0,0,1,1.021,1.022V59.334h-2.879V64.31h11.593V59.334h-2.818V53.911a14.17,14.17,0,0,1,.325-2.972c.79-3.156,2.925-5.478,5.757-5.478,2.554,0,3.2,1.718,3.2,4.736V64.31h8.7V59.334h-2.809V53.911a11.765,11.765,0,0,1,.325-3.018c.743-3.11,2.925-5.432,5.71-5.432,2.461,0,3.25,1.718,3.25,4.736V61.153c0,2.228.929,3.157,3.111,3.157h5.617V59.342Z"/>
 <path style="fill:#1d1d1b" d="M149.3,59.334V64.31h12.136V59.334H158.4V50.985h7.318V45.832H158.4V36.5h6.361a.891.891,0,0,1,1.021,1.022v2h5.478V34.5c0-2.182-.928-3.157-3.11-3.157H149.3V36.5h3.018V59.334Z"/>
 <path style="fill:#1d1d1b" d="M283.55,40.632a3,3,0,0,0-3.157,2.228l-4.762,18.4-3.345-18.4c-.7-1.625-1.485-2.228-3.157-2.228h-3.9v5.014h.7a1.314,1.314,0,0,1,1.3.836l4.1,17.828h3.495c-1.077,3.358-2.247,4.762-4.438,4.782a4.431,4.431,0,0,1-3.389-1.625l-2.228,4.179.65.6a9.165,9.165,0,0,0,5.339,1.811c3.21,0,5.315-1.6,7.1-4.737a12.784,12.784,0,0,0,1-2.476L285.5,46.482a1.3,1.3,0,0,1,1.346-.836h.7V40.632Z"/>
</svg>
