<svg viewBox="0 0 31.231 22.844" xmlns="http://www.w3.org/2000/svg" data-name=" ÎÓÈ 1" width="11.017mm" id="_ÎÓÈ_1" height="8.059mm">
 <title>hsimage</title>
 <path d="M30.986,21.188a1,1,0,0,1-.1,1.41.983.983,0,0,1-.77.24l-5-3.2a17.811,17.811,0,0,0-19,0l-5,3.2a1,1,0,0,1-1.11-.88,1.021,1.021,0,0,1,.24-.77L14.356.688a1.328,1.328,0,0,1,1.81-.52,1.3,1.3,0,0,1,.52.52Z" style="fill:#ffffff; fill-opacity:1"/>
</svg>
