<?xml version="1.0" encoding="UTF-8" standalone="no"?>
<svg width="78px" height="76px" viewBox="0 0 78 76" version="1.1" xmlns="http://www.w3.org/2000/svg" xmlns:xlink="http://www.w3.org/1999/xlink">
    <!-- Generator: Sketch 49 (51002) - http://www.bohemiancoding.com/sketch -->
    <title>гнатология</title>
    <desc>Created with Sketch.</desc>
    <defs></defs>
    <g id="Page-1" stroke="none" stroke-width="1" fill="none" fill-rule="evenodd">
        <g id="Диагностика-(посадочная)НМ-" transform="translate(-1190.000000, -2551.000000)">
            <g id="Group-3" transform="translate(0.000000, 1935.000000)">
                <g id="гнатология" transform="translate(1190.000000, 615.000000)">
                    <path d="M46.7867783,73.1161048 L52.8166165,67.6904997 L60.8180679,66.3589919 L63.8966826,58.8544418 L70.5280217,54.183095 L70.0456554,46.0859682 L73.993464,39 L70.0456554,31.9140318 L70.5280217,23.816905 L63.8966826,19.1455582 L60.8180679,11.6410081 L52.8166165,10.3095003 L46.7867783,4.88389518 L39,7.15594774 L31.2132217,4.88389518 L25.1833835,10.3095003 L17.1819321,11.6410081 L14.1033174,19.1455582 L7.47197834,23.816905 L7.95434462,31.9140318 L4.00653598,39 L7.95434462,46.0859682 L7.47197834,54.183095 L14.1033174,58.8544418 L17.1819321,66.3589919 L25.1833835,67.6904997 L31.2132217,73.1161048 L39,70.8440523 L46.7867783,73.1161048 Z" id="Star" stroke="#87CFCD" stroke-width="7" opacity="0.35"></path>
                    <path d="M49.6210944,37 C51.6056343,36.1364914 53,34.0978329 53,31.7204493 C53,28.5611324 50.5375661,26 47.5,26 C44.4624339,26 42,28.5611324 42,31.7204493 C42,33.0554587 42.4396902,34.2836567 43.1766691,35.2569341" id="Oval" stroke="#00B0B9" stroke-width="1.5" stroke-linecap="round"></path>
                    <path d="M28,50 L47.7264005,50 L50.7721576,34.0885478 C51.4218104,32.1841087 50.6821847,30.8959758 48.5532807,30.2241491 C46.4243767,29.5523224 45.0095471,30.3907108 44.308792,32.7393144 L41.8656626,38.6518359 C40.6027811,40.7945391 38.7057406,41.8658907 36.1745411,41.8658907 C32.3777419,41.8658907 32.6419522,38.6518359 29.6263673,38.6518359 C27.6159773,38.6518359 26.4071882,39.6860808 26,41.7545706 L26,48 C26,49.1045695 26.8954305,50 28,50 Z" id="Path-2" fill="#00B0B9"></path>
                </g>
            </g>
        </g>
    </g>
</svg>