<svg xmlns="http://www.w3.org/2000/svg" width="78" height="76" viewBox="0 0 78 76">
  <g fill="none">
    <path fill="#D5EEEE" d="M51.234699,63.3907884 L58.3200336,62.212418 L61.0461659,55.5709707 L66.9182575,51.4368783 L66.4911192,44.2710068 L69.986928,38 L66.4911192,31.7289932 L66.9182575,24.5631217 L61.0461659,20.4290293 L58.3200336,13.787582 L51.234699,12.6092116 L45.8952402,7.80760858 L39,9.81835103 L32.1047598,7.80760858 L26.765301,12.6092116 L19.6799664,13.787582 L16.9538341,20.4290293 L11.0817425,24.5631217 L11.5088808,31.7289932 L8.01307196,38 L11.5088808,44.2710068 L11.0817425,51.4368783 L16.9538341,55.5709707 L19.6799664,62.212418 L26.765301,63.3907884 L32.1047598,68.1923914 L39,66.181649 L45.8952402,68.1923914 L51.234699,63.3907884 Z M39,73.4692891 L30.3216836,76 L23.6014661,69.9567253 L14.6838977,68.473634 L11.2528007,60.1147401 L3.86221415,54.911591 L4.3998084,45.8926593 L0,38 L4.3998084,30.1073407 L3.86221415,21.088409 L11.2528007,15.8852599 L14.6838977,7.52636604 L23.6014661,6.04327473 L30.3216836,4.43836532e-15 L39,2.53071087 L47.6783164,1.11022302e-16 L54.3985339,6.04327473 L63.3161023,7.52636604 L66.7471993,15.8852599 L74.1377858,21.088409 L73.6001916,30.1073407 L78,38 L73.6001916,45.8926593 L74.1377858,54.911591 L66.7471993,60.1147401 L63.3161023,68.473634 L54.3985339,69.9567253 L47.6783164,76 L39,73.4692891 Z"/>
    <path fill="#00B0B9" d="M30.951302,27.7619048 C29.8753541,27.7619048 29,28.6540162 29,29.7505615 L29,49.5827719 C29,50.6793172 29.8753541,51.5714286 30.951302,51.5714286 L47.048698,51.5714286 C48.1246459,51.5714286 49,50.6793172 49,49.5827719 L49,29.7505615 C49,28.6540162 48.1246459,27.7619048 47.048698,27.7619048 L44.8038551,27.7619048 L44.8038551,28.9721349 C44.8038551,29.3381804 44.5126558,29.6350205 44.1534211,29.6350205 L33.8465789,29.6350205 C33.4873442,29.6350205 33.1961449,29.3381804 33.1961449,28.9721349 L33.1961449,27.7619048 L30.951302,27.7619048 Z M45.8712824,46.7689115 L32.1287827,46.7689115 C31.769548,46.7689115 31.4783487,46.4330615 31.4783487,46.0189115 C31.4783487,45.6047615 31.769548,45.2689115 32.1287827,45.2689115 L45.8712824,45.2689115 C46.2305171,45.2689115 46.5217164,45.6047615 46.5217164,46.0189115 C46.5217164,46.4330615 46.2305171,46.7689115 45.8712824,46.7689115 Z M45.8712824,40.4043257 C46.2305171,40.4043257 46.5217164,40.7401757 46.5217164,41.1543257 C46.5217164,41.5684757 46.2305171,41.9043257 45.8712824,41.9043257 L32.1287827,41.9043257 C31.769548,41.9043257 31.4783487,41.5684757 31.4783487,41.1543257 C31.4783487,40.7401757 31.769548,40.4043257 32.1287827,40.4043257 L45.8712824,40.4043257 Z M37.809218,35.1896701 C38.1684527,35.1896701 38.459652,35.5255201 38.459652,35.9396701 C38.459652,36.3538201 38.1684527,36.6896701 37.809218,36.6896701 L32.1287827,36.6896701 C31.769548,36.6896701 31.4783487,36.3538201 31.4783487,35.9396701 C31.4783487,35.5255201 31.769548,35.1896701 32.1287827,35.1896701 L37.809218,35.1896701 Z M42.5325216,26.455404 C42.9900581,26.6692895 43.2856524,27.1602681 43.2857143,27.7060942 L43.2857143,28.7142857 L34.7142857,28.7142857 L34.7142857,27.7060942 C34.7142857,27.1602681 35.00988,26.6692895 35.4673546,26.4554719 L36.3522803,26.0418375 C37.1237348,25.6812837 37.6221903,24.8534711 37.6221903,23.9328864 C37.6221903,23.4184599 38.0033367,23 38.4718303,23 L39.5281078,23 C39.9966014,23 40.3777478,23.4185279 40.3777478,23.9328864 C40.3777478,24.8534711 40.8762033,25.6812157 41.6476578,26.0418375 L42.5325216,26.455404 Z"/>
  </g>
</svg>
