<svg xmlns="http://www.w3.org/2000/svg" width="78" height="77" viewBox="0 0 78 77">
  <g fill="none" fill-rule="evenodd">
    <path fill="#00B0B9" stroke="#00B0B9" stroke-width="1.5" d="M25.0005621,46.128216 L25.1864697,35.7173874 C25.2840311,30.2539501 29.7921113,25.9040482 35.2555486,26.0016095 C36.2623868,26.0195888 37.2605799,26.1911695 38.2156318,26.5104221 C38.6283733,26.6484018 38.8686535,26.7173874 38.9364697,26.7173874 C39.0266476,26.7173874 39.4339756,26.6198027 40.1584537,26.4246335 L40.1584628,26.4246675 C45.672568,24.9392064 51.3468376,28.2050678 52.8322987,33.719173 C53.0518964,34.5343305 53.1708387,35.3733135 53.1864697,36.2173874 L53.3720221,46.2372148 C53.4069625,48.1239971 51.905748,49.6818612 50.0189657,49.7168016 C49.9978796,49.7171921 49.9767903,49.7173874 49.9557005,49.7173874 L49.9557005,49.7173874 C48.0333247,49.7173874 46.4749313,48.1589939 46.4749313,46.2366181 L46.4749313,38.841319 C46.4749313,34.8761977 43.2605654,31.6618318 39.2954441,31.6618318 L39.2954441,31.6618318 C35.3303228,31.6618318 32.1159569,34.8761977 32.1159569,38.841319 L32.1159569,46.1276438 C32.1159569,48.1102044 30.508774,49.7173874 28.5262133,49.7173874 L28.5262133,49.7173874 C26.5787395,49.7173874 25,48.1386479 25,46.191174 C25,46.1701868 25.0001874,46.1491999 25.0005621,46.128216 Z"/>
    <path fill="#D5EEEE" fill-rule="nonzero" d="M51.234699,63.4278029 L58.3200336,62.2487445 L61.0461659,55.6034192 L66.9182575,51.4669128 L66.4911192,44.2968572 L69.986928,38.0221886 L66.4911192,31.74752 L66.9182575,24.5774644 L61.0461659,20.440958 L58.3200336,13.7956327 L51.234699,12.6165743 L45.8952402,7.81216752 L39,9.82408408 L32.1047598,7.81216752 L26.765301,12.6165743 L19.6799664,13.7956327 L16.9538341,20.440958 L11.0817425,24.5774644 L11.5088808,31.74752 L8.01307196,38.0221886 L11.5088808,44.2968572 L11.0817425,51.4669128 L16.9538341,55.6034192 L19.6799664,62.2487445 L26.765301,63.4278029 L32.1047598,68.2322097 L39,66.2202931 L45.8952402,68.2322097 L51.234699,63.4278029 Z M39,73.5121886 L30.3216836,76.0443772 L23.6014661,69.9975737 L14.6838977,68.5136164 L11.2528007,60.1498417 L3.86221415,54.9436544 L4.3998084,45.9194565 L0,38.0221886 L4.3998084,30.1249207 L3.86221415,21.1007228 L11.2528007,15.8945355 L14.6838977,7.53076075 L23.6014661,6.04680345 L30.3216836,0 L39,2.53218857 L47.6783164,0 L54.3985339,6.04680345 L63.3161023,7.53076075 L66.7471993,15.8945355 L74.1377858,21.1007228 L73.6001916,30.1249207 L78,38.0221886 L73.6001916,45.9194565 L74.1377858,54.9436544 L66.7471993,60.1498417 L63.3161023,68.5136164 L54.3985339,69.9975737 L47.6783164,76.0443772 L39,73.5121886 Z"/>
  </g>
</svg>
